[
	{
        "section": "Info Coronavirus",
        "links": [
	        {
                "label": "Go to gouvernement.fr",
                "url": "https://www.gouvernement.fr/info-coronavirus"
            }
        ]
    },
    {
        "section": "👉 Where to get your certificate",
        "description" : "You can get your vaccination certificate on https://attestation-vaccin.ameli.fr. And \"Mon espace santé\" allows you to securely keep and share your health data and documents.",
        "links": [
	        {
                "label": "Your vaccination certificate",
                "url": "https://attestation-vaccin.ameli.fr/"
            },
            {
                "label": "Mon espace santé",
                "url": "https://www.monespacesante.fr/"
            }
        ]
    },
    {
        "section": "✈️ Travel",
        "description" : "Diplomatie.gouv.fr gives you information for each country, in particular if you want to come to France.",
        "links": [
	        {
                "label": "Go to Diplomatie.gouv.fr 🇫🇷",
                "url": "https://www.diplomatie.gouv.fr/en/"
            }
        ]
    }
]
