[
	{
        "section": "Your privacy is protected",
        "description": "TousAntiCovid complies with the General Data Protection Regulation.",
        "links": [
	        {
                "label": "More about the GDPR ",
                "url": "https://gitlab.inria.fr/stopcovid19/accueil/-/blob/master/CGU-en.md#personal-data"
            }
        ]
    },
    {
        "section": "Contact tracing deactivation",
        "description": "The contact tracing feature in TousAntiCovid officially ended on January 31, 2023."
    },
    {
        "section": "The data in TousAntiCovid",
        "description": "Data is stored locally on the user's smartphone. In accordance with the General Data Protection Regulation (GDPR), the user can delete the data stored on his smartphone from the settings of the TousAntiCovid application."
    },
    {
        "section": "Wallet",
        "description": "For the storage of the COVID-19 certificate (vaccination, test, exemption and recovery), the information entered is not processed by the Ministère de la Santé et de la Prévention.\n\nThey are processed locally, on the user's smartphone, and are not subject to any transfer."
    },
    {
        "section": "Minors under the age of 15 years",
        "description": "If you are a minor under the age of 15 years, talk to your parents or your guardians about the appropriateness of installing the app."
    },
    {
        "section": "The team behind TousAntiCovid",
        "description": "This app was developed by the TousAntiCovid team under the supervision of the Ministère de la Santé et de la Prévention and the Secrétariat d'Etat chargé du Numérique.\nTousAntiCovid team: Inria, ANSSI, Dassault Systèmes, Inserm, Lunabee Studio, Ministry for Solidarity and Health, Orange and Santé publique France.\nThe app is entirely open source and the source code is accessible at the address below."
    },
    {
        "section": "Further information",
        "links": [
            {
                "label": "Frequently Asked Questions",
                "url": "https://sante.gouv.fr/soins-et-maladies/maladies/maladies-infectieuses/coronavirus/tout-savoir-sur-le-covid-19/article/tousanticovid"
            },
            {
                "label": "Application source code",
                "url": "https://gitlab.inria.fr/stopcovid19/accueil"
            }
        ]
    }
]

